<svg id="arrow-forward" xmlns="http://www.w3.org/2000/svg" width="16" height="16" viewBox="0 0 16 16">
  <path id="Icon_material-arrow-forward" data-name="Icon material-arrow-forward" d="M14,6,12.59,7.41,18.17,13H6v2H18.17l-5.58,5.59L14,22l8-8Z" transform="translate(-6 -6)" fill="#666"/>
</svg>
