<svg id="bookmark" xmlns="http://www.w3.org/2000/svg" width="9.333" height="12" viewBox="0 0 9.333 12">
  <path id="Icon_material-bookmark" data-name="Icon material-bookmark" d="M11.333,2H4.667A1.332,1.332,0,0,0,3.34,3.333L3.333,14,8,12l4.667,2V3.333A1.337,1.337,0,0,0,11.333,2Z" transform="translate(-3.333 -2)"/>
</svg>
