<svg xmlns="http://www.w3.org/2000/svg" width="24" height="24" viewBox="0 0 24 24">
  <g id="Burger_Button" data-name="Burger Button" style="isolation: isolate">
    <rect id="Bounds" width="24" height="24" fill="none"/>
    <path id="Icon" d="M3,18H21V16H3v2Zm0-5H21V11H3v2ZM3,6V8H21V6Z" opacity="0.54"/>
  </g>
</svg>
