<svg xmlns="http://www.w3.org/2000/svg" width="48" height="47.999" viewBox="0 0 48 47.999">
  <g id="cloud-computing" transform="translate(0 0)">
    <g id="cloud_computing" data-name="cloud computing" transform="translate(0 -0.001)">
      <g id="Group_105" data-name="Group 105" transform="translate(32.876 25.688)">
        <g id="Group_104" data-name="Group 104">
          <path id="Path_73" data-name="Path 73" d="M68.036,52.185a.937.937,0,1,0,.275.663A.945.945,0,0,0,68.036,52.185Z" transform="translate(-66.436 -51.91)" fill="#169346"/>
        </g>
      </g>
      <g id="Group_107" data-name="Group 107" transform="translate(0.001 0.001)">
        <g id="Group_106" data-name="Group 106">
          <path id="Path_74" data-name="Path 74" d="M38.957,9.475a9.087,9.087,0,0,0-1.73.165A13.388,13.388,0,0,0,24.377,0,13.388,13.388,0,0,0,12.25,7.715a6.745,6.745,0,0,0-8.723,7.173A6.746,6.746,0,0,0,6.112,27.532v.86a.937.937,0,0,0,.711.91l1.623.4.8,1.942L8.389,33.08a.938.938,0,0,0,.141,1.146l2.5,2.5a.938.938,0,0,0,1.146.141L13.607,36l1.942.8.4,1.623a.937.937,0,0,0,.91.711H20.4a.937.937,0,0,0,.91-.711l.4-1.623,1.942-.8,1.432.861a.937.937,0,0,0,1.146-.141l2.5-2.5a.938.938,0,0,0,.141-1.146l-.861-1.432.8-1.942,1.623-.4a.937.937,0,0,0,.711-.91V24.859a.938.938,0,0,0-.711-.91l-1.623-.4-.8-1.942.861-1.432a.938.938,0,0,0-.141-1.146l-2.5-2.5a.938.938,0,0,0-1.146-.141l-1.432.861-1.942-.8-.4-1.623a.937.937,0,0,0-.91-.711H16.863a.937.937,0,0,0-.91.711l-.4,1.623-1.942.8-1.432-.861a.938.938,0,0,0-1.146.141l-2.5,2.5a.937.937,0,0,0-.141,1.146L9.25,21.6l-.8,1.942-1.623.4a.938.938,0,0,0-.711.91v.786A4.871,4.871,0,0,1,4.919,16.3a.938.938,0,0,0,.562-1.074,4.87,4.87,0,0,1,4.752-5.944,4.824,4.824,0,0,1,2.115.482.937.937,0,0,0,1.283-.508,11.512,11.512,0,0,1,21.8.931,9.055,9.055,0,0,0-3.508,2.642.937.937,0,1,0,1.457,1.18,7.186,7.186,0,0,1,3.473-2.348c.074-.023.149-.045.224-.065l.006,0a7.17,7.17,0,1,1,1.871,14.091H36.814a.938.938,0,0,0,0,1.875h2.143a9.044,9.044,0,1,0,0-18.087ZM7.987,25.591l1.37-.341A.938.938,0,0,0,10,24.7l1.167-2.815a.937.937,0,0,0-.063-.842l-.727-1.21,1.463-1.463,1.209.727a.937.937,0,0,0,.842.063L16.7,17.992a.938.938,0,0,0,.551-.639l.341-1.37h2.068L20,17.353a.938.938,0,0,0,.551.639l2.815,1.167a.938.938,0,0,0,.842-.063l1.21-.727,1.463,1.463-.727,1.209a.937.937,0,0,0-.063.842L27.262,24.7a.937.937,0,0,0,.639.551l1.37.341v2.068L27.9,28a.937.937,0,0,0-.639.551L26.1,31.367a.937.937,0,0,0,.063.842l.727,1.209-1.463,1.463-1.21-.727a.938.938,0,0,0-.842-.063l-2.815,1.167A.938.938,0,0,0,20,35.9l-.341,1.37H17.595l-.341-1.37a.938.938,0,0,0-.551-.639l-2.815-1.167a.937.937,0,0,0-.842.063l-1.21.727-1.463-1.463.727-1.21a.937.937,0,0,0,.063-.842L10,28.552A.938.938,0,0,0,9.357,28l-1.37-.341V25.591Z" transform="translate(-0.002 -0.001)" fill="#169346"/>
        </g>
      </g>
      <g id="Group_109" data-name="Group 109" transform="translate(16.319 5.917)">
        <g id="Group_108" data-name="Group 108">
          <path id="Path_75" data-name="Path 75" d="M35.242,14.855l1.3-1.3a.937.937,0,1,0-1.326-1.326l-1.961,1.961a.937.937,0,0,0,0,1.326l1.961,1.961a.937.937,0,0,0,1.326-1.326Z" transform="translate(-32.979 -11.957)" fill="#169346"/>
        </g>
      </g>
      <g id="Group_111" data-name="Group 111" transform="translate(27.829 5.917)">
        <g id="Group_110" data-name="Group 110">
          <path id="Path_76" data-name="Path 76" d="M59.8,14.193l-1.961-1.961a.938.938,0,0,0-1.326,1.326l1.3,1.3-1.3,1.3a.938.938,0,0,0,1.326,1.326L59.8,15.519a.938.938,0,0,0,0-1.326Z" transform="translate(-56.237 -11.957)" fill="#169346"/>
        </g>
      </g>
      <g id="Group_113" data-name="Group 113" transform="translate(21.901 5.522)">
        <g id="Group_112" data-name="Group 112">
          <path id="Path_77" data-name="Path 77" d="M48.439,11.288a.937.937,0,0,0-1.283.333l-2.769,4.712a.937.937,0,1,0,1.617.95l2.769-4.712A.937.937,0,0,0,48.439,11.288Z" transform="translate(-44.257 -11.158)" fill="#169346"/>
        </g>
      </g>
      <g id="Group_115" data-name="Group 115" transform="translate(28.313 31.478)">
        <g id="Group_114" data-name="Group 114">
          <path id="Path_78" data-name="Path 78" d="M73.132,73.4l-1.1-.994c.014-.177.021-.354.021-.531s-.007-.354-.021-.531l1.1-.994a.938.938,0,0,0,.183-1.165L71.648,66.3a.937.937,0,0,0-1.1-.423l-1.409.455a6.71,6.71,0,0,0-.919-.532l-.31-1.449a.938.938,0,0,0-.917-.741h-3.33a.937.937,0,0,0-.917.741l-.31,1.449a6.709,6.709,0,0,0-.919.532l-1.409-.455a.937.937,0,0,0-1.1.423l-1.667,2.883a.938.938,0,0,0,.183,1.165l1.1.994c-.014.177-.021.354-.021.531s.007.354.021.531l-1.1.994a.938.938,0,0,0-.183,1.165l1.667,2.883a.937.937,0,0,0,1.1.423l1.409-.455a6.708,6.708,0,0,0,.919.532l.31,1.449a.938.938,0,0,0,.917.741h3.33a.937.937,0,0,0,.917-.741l.31-1.449a6.7,6.7,0,0,0,.919-.532l1.409.455a.937.937,0,0,0,1.1-.423l1.667-2.883A.938.938,0,0,0,73.132,73.4Zm-3.014-2.282a4.9,4.9,0,0,1,0,1.514.938.938,0,0,0,.3.841l.9.81-.908,1.57-1.149-.371a.938.938,0,0,0-.878.163,4.835,4.835,0,0,1-1.309.757.938.938,0,0,0-.58.679l-.253,1.18H64.421l-.253-1.18a.938.938,0,0,0-.58-.679,4.835,4.835,0,0,1-1.309-.757.937.937,0,0,0-.878-.163l-1.149.371-.908-1.57.9-.81a.938.938,0,0,0,.3-.841,4.9,4.9,0,0,1,0-1.514.938.938,0,0,0-.3-.841l-.9-.81.908-1.57,1.149.371a.937.937,0,0,0,.878-.163,4.835,4.835,0,0,1,1.309-.757.938.938,0,0,0,.58-.679l.253-1.18h1.814l.253,1.18a.938.938,0,0,0,.58.679,4.835,4.835,0,0,1,1.309.757.938.938,0,0,0,.878.163l1.149-.371.908,1.57-.9.81A.937.937,0,0,0,70.118,71.114Z" transform="translate(-57.215 -63.61)" fill="#169346"/>
        </g>
      </g>
      <g id="Group_117" data-name="Group 117" transform="translate(12.519 20.516)">
        <g id="Group_116" data-name="Group 116">
          <path id="Path_79" data-name="Path 79" d="M31.407,41.458a6.109,6.109,0,1,0,6.11,6.109A6.116,6.116,0,0,0,31.407,41.458Zm0,10.344a4.235,4.235,0,1,1,4.235-4.235A4.239,4.239,0,0,1,31.407,51.8Z" transform="translate(-25.298 -41.458)" fill="#169346"/>
        </g>
      </g>
      <g id="Group_119" data-name="Group 119" transform="translate(0 37.125)">
        <g id="Group_118" data-name="Group 118">
          <path id="Path_80" data-name="Path 80" d="M4.549,75.023H.938a.938.938,0,0,0,0,1.875H4.549a.938.938,0,0,0,0-1.875Z" transform="translate(0 -75.023)" fill="#169346"/>
        </g>
      </g>
      <g id="Group_121" data-name="Group 121" transform="translate(7.212 37.125)">
        <g id="Group_120" data-name="Group 120">
          <path id="Path_81" data-name="Path 81" d="M16.175,75.3a.937.937,0,1,0,.275.663A.945.945,0,0,0,16.175,75.3Z" transform="translate(-14.575 -75.023)" fill="#169346"/>
        </g>
      </g>
      <g id="Group_123" data-name="Group 123" transform="translate(21.317 46.124)">
        <g id="Group_122" data-name="Group 122">
          <path id="Path_82" data-name="Path 82" d="M48.862,93.208H44.016a.938.938,0,1,0,0,1.875h4.845a.938.938,0,0,0,0-1.875Z" transform="translate(-43.079 -93.208)" fill="#169346"/>
        </g>
      </g>
      <g id="Group_125" data-name="Group 125" transform="translate(0 46.125)">
        <g id="Group_124" data-name="Group 124">
          <path id="Path_83" data-name="Path 83" d="M18.517,93.21H.938a.938.938,0,0,0,0,1.875H18.517a.938.938,0,1,0,0-1.875Z" transform="translate(0 -93.21)" fill="#169346"/>
        </g>
      </g>
      <g id="Group_127" data-name="Group 127" transform="translate(0 41.625)">
        <g id="Group_126" data-name="Group 126">
          <path id="Path_84" data-name="Path 84" d="M7.048,84.116H.938a.938.938,0,0,0,0,1.875h6.11a.938.938,0,1,0,0-1.875Z" transform="translate(0 -84.116)" fill="#169346"/>
        </g>
      </g>
      <g id="Group_129" data-name="Group 129" transform="translate(10.613 41.625)">
        <g id="Group_128" data-name="Group 128">
          <path id="Path_85" data-name="Path 85" d="M34.834,84.116H22.384a.938.938,0,0,0,0,1.875h12.45a.938.938,0,0,0,0-1.875Z" transform="translate(-21.446 -84.116)" fill="#169346"/>
        </g>
      </g>
      <g id="Group_131" data-name="Group 131" transform="translate(33.484 36.797)">
        <g id="Group_130" data-name="Group 130">
          <path id="Path_86" data-name="Path 86" d="M70.607,74.36A2.942,2.942,0,1,0,73.549,77.3,2.945,2.945,0,0,0,70.607,74.36Zm0,4.009A1.067,1.067,0,1,1,71.674,77.3,1.068,1.068,0,0,1,70.607,78.368Z" transform="translate(-67.665 -74.36)" fill="#169346"/>
        </g>
      </g>
      <g id="Group_133" data-name="Group 133" transform="translate(37.996 17.559)">
        <g id="Group_132" data-name="Group 132">
          <path id="Path_87" data-name="Path 87" d="M82.069,35.483a.938.938,0,0,0-.937.938,3.414,3.414,0,0,1-3.41,3.41.938.938,0,0,0,0,1.875,5.291,5.291,0,0,0,5.285-5.285A.937.937,0,0,0,82.069,35.483Z" transform="translate(-76.784 -35.483)" fill="#169346"/>
        </g>
      </g>
    </g>
  </g>
</svg>
