<svg id="edit" xmlns="http://www.w3.org/2000/svg" width="13.502" height="13.502" viewBox="0 0 13.502 13.502">
  <path id="Icon_material-edit" data-name="Icon material-edit" d="M2.25,12.938V15.75H5.063l8.3-8.3L10.545,4.642ZM15.533,5.28a.747.747,0,0,0,0-1.057L13.778,2.468a.747.747,0,0,0-1.057,0L11.347,3.84,14.16,6.653,15.532,5.28Z" transform="translate(-2.25 -2.248)" fill="gray"/>
</svg>
