<svg xmlns="http://www.w3.org/2000/svg" width="22.917" height="18.333" viewBox="0 0 22.917 18.333">
  <g id="email" transform="translate(0 0)">
    <path id="Icon_material-email" data-name="Icon material-email" d="M21.958,2.667H3.625a2.289,2.289,0,0,0-2.28,2.292l-.011,13.75A2.3,2.3,0,0,0,3.625,21H21.958a2.3,2.3,0,0,0,2.292-2.292V4.958a2.3,2.3,0,0,0-2.292-2.292Zm0,4.583-9.167,5.729L3.625,7.25V4.958l9.167,5.729,9.167-5.729V7.25Z" transform="translate(-1.333 -2.667)" fill="#7b7b7b"/>
  </g>
</svg>
