<svg xmlns="http://www.w3.org/2000/svg" width="24" height="24" viewBox="0 0 24 24">
  <g id="Expand_less_" data-name="Expand less " style="isolation: isolate">
    <rect id="Bounds" width="24" height="24" fill="none"/>
    <path id="Icon" d="M12,8,6,14l1.4,1.4L12,10.8l4.6,4.6L18,14Z" opacity="0.54"/>
  </g>
</svg>
