<svg id="file-upload" xmlns="http://www.w3.org/2000/svg" width="12.594" height="16" viewBox="0 0 12.594 16">
  <path id="Icon_material-file-upload" data-name="Icon material-file-upload" d="M11.1,16.735h5.4V11.088h3.6L13.8,4.5,7.5,11.088h3.6ZM7.5,18.618H20.094V20.5H7.5Z" transform="translate(-7.5 -4.5)" fill="#666"/>
</svg>
