<svg id="file-zip" xmlns="http://www.w3.org/2000/svg" width="17.995" height="20.566" viewBox="0 0 17.995 20.566">
  <path id="Icon_metro-file-zip" data-name="Icon metro-file-zip" d="M20.147,5.886a18.2,18.2,0,0,0-1.751-2,18.215,18.215,0,0,0-2-1.751,3.2,3.2,0,0,0-1.826-.847H4.606A1.609,1.609,0,0,0,3,2.892V20.244a1.608,1.608,0,0,0,1.607,1.607H19.387a1.609,1.609,0,0,0,1.607-1.607V7.712a3.2,3.2,0,0,0-.847-1.826Zm-2.66-1.094a17.53,17.53,0,0,1,1.458,1.634H15.853V3.335a17.522,17.522,0,0,1,1.634,1.458Zm2.222,15.452a.326.326,0,0,1-.321.321H4.606a.326.326,0,0,1-.321-.321V2.892a.326.326,0,0,1,.321-.321h9.962v4.5a.643.643,0,0,0,.643.643h4.5V20.244ZM6.855,2.571H9.426V3.856H6.855ZM9.426,3.856H12V5.141H9.426ZM6.855,5.141H9.426V6.427H6.855ZM9.426,6.427H12V7.712H9.426ZM6.855,7.712H9.426V9H6.855ZM9.426,9H12v1.285H9.426ZM6.855,10.283H9.426v1.285H6.855Zm2.571,1.285H12v1.285H9.426ZM6.855,18.316a.967.967,0,0,0,.964.964h3.213A.967.967,0,0,0,12,18.316V15.1a.967.967,0,0,0-.964-.964H9.426V12.854H6.855v5.463Zm3.856-1.607v1.285H8.141V16.71Z" transform="translate(-2.999 -1.285)"/>
</svg>
