<svg xmlns="http://www.w3.org/2000/svg" width="24" height="24" viewBox="0 0 24 24">
  <g id="Filter_Icon" data-name="Filter Icon" style="isolation: isolate">
    <path id="Bounds" d="M0,0H24V24H0Z" fill="none"/>
    <path id="Icon" d="M10,18h4V16H10ZM3,6V8H21V6Zm3,7H18V11H6Z" opacity="0.54"/>
  </g>
</svg>
