<svg xmlns="http://www.w3.org/2000/svg" width="24" height="24" viewBox="0 0 24 24">
  <g id="Fullscreen_exit_Icon" data-name="Fullscreen exit Icon" style="isolation: isolate">
    <rect id="Bounds" width="24" height="24" fill="none"/>
    <path id="Icon" d="M5,16H8v3h2V14H5v2ZM8,8H5v2h5V5H8V8Zm6,11h2V16h3V14H14v5ZM16,8V5H14v5h5V8Z" opacity="0.54"/>
  </g>
</svg>
