<svg xmlns="http://www.w3.org/2000/svg" width="20.344" height="18" viewBox="0 0 20.344 18">
  <g id="Icon_feather-heart" data-name="Icon feather-heart" transform="translate(1 1)">
    <path id="Icon_feather-heart-2" data-name="Icon feather-heart" d="M18.478,4.413a4.827,4.827,0,0,0-6.828,0l-.93.93-.93-.93A4.828,4.828,0,0,0,2.963,11.24l.93.93L10.721,19l6.828-6.828.93-.93a4.827,4.827,0,0,0,0-6.828Z" transform="translate(-1.549 -2.998)" fill="none" stroke="gray" stroke-linecap="round" stroke-linejoin="round" stroke-width="2"/>
  </g>
</svg>
