<svg id="Icon_open-double-quote-serif-right" data-name="Icon open-double-quote-serif-right" xmlns="http://www.w3.org/2000/svg" width="43.487" height="37.25" viewBox="0 0 43.487 37.25">
  <path id="Icon_open-double-quote-serif-left" data-name="Icon open-double-quote-serif-left" d="M50.8,0A18.709,18.709,0,0,1,69.487,18.625V37.25H50.8V18.625H63.259A12.393,12.393,0,0,0,50.8,6.208ZM26,0A18.709,18.709,0,0,1,44.684,18.625V37.25H26V18.625H38.456A12.393,12.393,0,0,0,26,6.208Z" transform="translate(-26)" fill="gray"/>
</svg>
