<svg id="learners" xmlns="http://www.w3.org/2000/svg" xmlns:xlink="http://www.w3.org/1999/xlink" width="56" height="56" viewBox="0 0 56 56">
  <defs>
    <clipPath id="clip-path">
      <rect id="Rectangle_425" data-name="Rectangle 425" width="56" height="56" transform="translate(843 688)" fill="gray"/>
    </clipPath>
  </defs>
  <g id="Mask_Group_28" data-name="Mask Group 28" transform="translate(-843 -688)" clip-path="url(#clip-path)">
    <g id="web-web_browser-student-graduate-onlie_education" data-name="web-web browser-student-graduate-onlie education" transform="translate(841.133 686.133)">
      <rect id="Rectangle_427" data-name="Rectangle 427" width="1.867" height="1.867" transform="translate(5.6 5.6)" fill="gray"/>
      <rect id="Rectangle_428" data-name="Rectangle 428" width="1.867" height="1.867" transform="translate(9.333 5.6)" fill="gray"/>
      <rect id="Rectangle_429" data-name="Rectangle 429" width="1.867" height="1.867" transform="translate(13.067 5.6)" fill="gray"/>
      <path id="Path_310" data-name="Path 310" d="M57.139,40.152l-7.672-1.7V36.689A6.533,6.533,0,0,0,53.2,30.8v-.933h.933a.933.933,0,0,0,.933-.933,8.335,8.335,0,0,0-1.923-5.348.762.762,0,0,0,.056-.252V18.611l1.867-.56v3.416h1.867V16.8a.941.941,0,0,0-.663-.9l-4-1.195V4.667a2.808,2.808,0,0,0-2.8-2.8H4.667a2.808,2.808,0,0,0-2.8,2.8v39.2a2.808,2.808,0,0,0,2.8,2.8h30.8V56.933a.933.933,0,0,0,.933.933H56.933a.933.933,0,0,0,.933-.933V41.067a.94.94,0,0,0-.728-.915ZM54,41.375l-5.88,2.669L49.187,40.3ZM51.333,30.8A4.667,4.667,0,1,1,42,30.8V29.437l1.5-1.008.467.924a.916.916,0,0,0,.831.513.906.906,0,0,0,.345-.065l4.209-1.689,1.979,1.325ZM45.211,44.044l-5.88-2.669L44.147,40.3ZM52.547,28,49.98,26.292a.933.933,0,0,0-.859-.093l-3.873,1.549-.551-1.1a.956.956,0,0,0-.588-.485.942.942,0,0,0-.756.131L40.787,28H40.2a6.485,6.485,0,0,1,1.848-3.687c.009-.019.028-.028.047-.047H51.24c.019.019.037.028.047.037A6.54,6.54,0,0,1,53.135,28ZM42,22.4V19.171L46.4,20.5a1,1,0,0,0,.541,0l4.4-1.325V22.4Zm10.752-5.6-6.085,1.829L40.581,16.8l6.085-1.829ZM3.733,4.667a.933.933,0,0,1,.933-.933h44.8a.933.933,0,0,1,.933.933V9.333H3.733ZM36.195,40.152a.94.94,0,0,0-.728.915V44.8H4.667a.933.933,0,0,1-.933-.933V11.2H50.4v2.949L46.937,13.1a1.064,1.064,0,0,0-.541,0l-9.333,2.8a.933.933,0,0,0,0,1.792l3.071.915v4.723a.762.762,0,0,0,.056.252,8.386,8.386,0,0,0-1.923,5.348.933.933,0,0,0,.933.933h.933V30.8a6.533,6.533,0,0,0,3.733,5.889v1.764ZM42,56H37.333V42.513L42,44.641Zm3.733,0H43.867V45.481l1.867.849Zm0-16.931V37.259a5.871,5.871,0,0,0,1.867,0v1.811l-.933,3.267ZM49.467,56H47.6V46.331l1.867-.849ZM56,56H51.333V44.641L56,42.513Z" fill="gray"/>
    </g>
  </g>
</svg>
