<svg xmlns="http://www.w3.org/2000/svg" width="22" height="11" viewBox="0 0 22 11">
  <g id="link" style="isolation: isolate">
    <path id="Icon_material-link" data-name="Icon material-link" d="M5.09,16A3.413,3.413,0,0,1,8.5,12.59h4.4V10.5H8.5a5.5,5.5,0,0,0,0,11h4.4V19.41H8.5A3.413,3.413,0,0,1,5.09,16ZM9.6,17.1h8.8V14.9H9.6Zm9.9-6.6H15.1v2.09h4.4a3.41,3.41,0,1,1,0,6.82H15.1V21.5h4.4a5.5,5.5,0,0,0,0-11Z" transform="translate(-3 -10.5)" fill="#169346"/>
  </g>
</svg>
