<svg id="location" xmlns="http://www.w3.org/2000/svg" width="18" height="19.957" viewBox="0 0 18 19.957">
  <path id="Subtraction_3" data-name="Subtraction 3" d="M4.814,17.562h0C4.8,17.537,3.593,15,2.407,12.185c-.7-1.658-1.256-3.09-1.655-4.257A11.475,11.475,0,0,1,0,4.814a4.814,4.814,0,0,1,8.218-3.4,4.783,4.783,0,0,1,1.41,3.4,11.473,11.473,0,0,1-.752,3.113c-.4,1.166-.956,2.6-1.655,4.257C6.034,15,4.826,17.537,4.814,17.562Zm0-14.651a2.3,2.3,0,1,0,2.3,2.3A2.3,2.3,0,0,0,4.814,2.911Z" transform="translate(4.29)" fill="#666"/>
  <line id="Line_35" data-name="Line 35" x1="18" transform="translate(0 17.457)" fill="none" stroke="#707070" stroke-width="5"/>
</svg>
