<svg id="notifications" xmlns="http://www.w3.org/2000/svg" width="16" height="19.5" viewBox="0 0 16 19.5">
  <path id="Icon_material-notifications" data-name="Icon material-notifications" d="M14,23.25a2.006,2.006,0,0,0,2-2H12A2,2,0,0,0,14,23.25Zm6-6v-5c0-3.07-1.64-5.64-4.5-6.32V5.25a1.5,1.5,0,1,0-3,0v.68C9.63,6.61,8,9.17,8,12.25v5l-2,2v1H22v-1Z" transform="translate(-6 -3.75)" fill="gray"/>
</svg>
