<svg id="Play_btn" data-name="Play btn" xmlns="http://www.w3.org/2000/svg" width="95" height="95" viewBox="0 0 95 95">
  <g id="Path_156" data-name="Path 156" fill="none">
    <path d="M47.5,0A47.5,47.5,0,1,1,0,47.5,47.5,47.5,0,0,1,47.5,0Z" stroke="none"/>
    <path d="M 47.5 5 C 41.76033401489258 5 36.19501495361328 6.123001098632813 30.9586181640625 8.337814331054688 C 25.89835357666016 10.47811889648438 21.35269927978516 13.543212890625 17.44796752929688 17.44796752929688 C 13.543212890625 21.35269927978516 10.47811889648438 25.89835357666016 8.337814331054688 30.9586181640625 C 6.123001098632813 36.19501495361328 5 41.76033401489258 5 47.5 C 5 53.23966598510742 6.123001098632813 58.80498504638672 8.337814331054688 64.0413818359375 C 10.47811889648438 69.10165405273438 13.543212890625 73.64730072021484 17.44796752929688 77.55203247070313 C 21.35269927978516 81.456787109375 25.89835357666016 84.52188110351563 30.9586181640625 86.66218566894531 C 36.19501495361328 88.87699890136719 41.76033401489258 90 47.5 90 C 53.23966598510742 90 58.80498504638672 88.87699890136719 64.0413818359375 86.66218566894531 C 69.10165405273438 84.52188110351563 73.64730072021484 81.456787109375 77.55203247070313 77.55203247070313 C 81.456787109375 73.64730072021484 84.52188110351563 69.10165405273438 86.66218566894531 64.0413818359375 C 88.87699890136719 58.80498504638672 90 53.23966598510742 90 47.5 C 90 41.76033401489258 88.87699890136719 36.19501495361328 86.66218566894531 30.9586181640625 C 84.52188110351563 25.89835357666016 81.456787109375 21.35269927978516 77.55203247070313 17.44796752929688 C 73.64730072021484 13.543212890625 69.10165405273438 10.47811889648438 64.0413818359375 8.337814331054688 C 58.80498504638672 6.123001098632813 53.23966598510742 5 47.5 5 M 47.5 0 C 73.7335205078125 0 95 21.26648712158203 95 47.5 C 95 73.7335205078125 73.7335205078125 95 47.5 95 C 21.26648712158203 95 0 73.7335205078125 0 47.5 C 0 21.26648712158203 21.26648712158203 0 47.5 0 Z" stroke="none" fill="#b6bab8"/>
  </g>
  <path id="Icon_awesome-play" data-name="Icon awesome-play" d="M29.841,15.1,5.091.464A3.356,3.356,0,0,0,0,3.368V32.625a3.372,3.372,0,0,0,5.091,2.9L29.841,20.9a3.372,3.372,0,0,0,0-5.808Z" transform="translate(34.65 29.497)" fill="#9f9e9e"/>
</svg>
