<svg id="question-circle" xmlns="http://www.w3.org/2000/svg" width="17.438" height="17.438" viewBox="0 0 17.438 17.438">
  <path id="Icon_awesome-question-circle" data-name="Icon awesome-question-circle" d="M17.719,9A8.719,8.719,0,1,1,9,.281,8.718,8.718,0,0,1,17.719,9ZM9.234,3.164a4.554,4.554,0,0,0-4.1,2.241.422.422,0,0,0,.1.572l1.22.925a.422.422,0,0,0,.586-.075c.628-.8,1.059-1.258,2.015-1.258.718,0,1.607.462,1.607,1.159,0,.526-.435.8-1.144,1.194-.827.464-1.921,1.041-1.921,2.484v.141a.422.422,0,0,0,.422.422H9.984a.422.422,0,0,0,.422-.422V10.5c0-1,2.925-1.042,2.925-3.75C13.331,4.711,11.216,3.164,9.234,3.164ZM9,11.883A1.617,1.617,0,1,0,10.617,13.5,1.619,1.619,0,0,0,9,11.883Z" transform="translate(-0.281 -0.281)"/>
</svg>
