<svg xmlns="http://www.w3.org/2000/svg" width="24" height="24" viewBox="0 0 24 24">
  <g id="Refresh_Icon" data-name="Refresh Icon" style="isolation: isolate">
    <rect id="Bounds" width="24" height="24" fill="none"/>
    <path id="Icon" d="M12,4a8,8,0,0,0,0,16,8.69,8.69,0,0,0,8-6H18a6.947,6.947,0,0,1-6,4A6,6,0,0,1,12,6a4.668,4.668,0,0,1,4,2l-3,3h7V4L18,6A12.6,12.6,0,0,0,12,4Z" opacity="0.54"/>
  </g>
</svg>
