<svg xmlns="http://www.w3.org/2000/svg" width="18.784" height="18.784" viewBox="0 0 18.784 18.784">
  <g id="send" transform="translate(1 1.414)">
    <path id="Path" d="M9.208,0,0,9.208" transform="translate(7.162)" fill="none" stroke="#666" stroke-linecap="round" stroke-linejoin="round" stroke-miterlimit="10" stroke-width="2"/>
    <path id="Path-2" data-name="Path" d="M16.37,0,10.64,16.37,7.366,9,0,5.729,16.37,0Z" fill="none" stroke="#666" stroke-linecap="round" stroke-linejoin="round" stroke-miterlimit="10" stroke-width="2"/>
  </g>
</svg>
