<svg xmlns="http://www.w3.org/2000/svg" width="19" height="18" viewBox="0 0 19 18">
  <g id="star-filled" transform="translate(1 1)">
    <path id="Path" d="M8.5,0l2.627,5.266L17,6.116l-4.25,4.1,1,5.788L8.5,13.266,3.247,16l1-5.788L0,6.116l5.873-.85L8.5,0Z" fill="#fbc30b" stroke="#fbc30b" stroke-linecap="round" stroke-linejoin="round" stroke-miterlimit="10" stroke-width="2"/>
  </g>
</svg>
