<svg id="timelapse" xmlns="http://www.w3.org/2000/svg" width="36" height="36" viewBox="0 0 36 36">
  <path id="Icon_material-timelapse" data-name="Icon material-timelapse" d="M28.632,13.368A10.754,10.754,0,0,0,21,10.2V21l-7.632,7.632A10.793,10.793,0,1,0,28.632,13.368ZM21,3A18,18,0,1,0,39,21,18.007,18.007,0,0,0,21,3Zm0,32.4A14.4,14.4,0,1,1,35.4,21,14.4,14.4,0,0,1,21,35.4Z" transform="translate(-3 -3)" fill="#666"/>
</svg>
