<svg id="instagram" xmlns="http://www.w3.org/2000/svg" width="36" height="35.992" viewBox="0 0 36 35.992">
  <path id="Icon_awesome-instagram" data-name="Icon awesome-instagram" d="M18,9.763a9.228,9.228,0,1,0,9.228,9.228A9.213,9.213,0,0,0,18,9.763ZM18,24.99a6,6,0,1,1,6-6A6.01,6.01,0,0,1,18,24.99Zm11.758-15.6a2.152,2.152,0,1,1-2.152-2.152A2.147,2.147,0,0,1,29.759,9.385Zm6.112,2.184c-.137-2.883-.8-5.437-2.907-7.541s-4.658-2.763-7.541-2.907c-2.972-.169-11.878-.169-14.85,0-2.875.137-5.429.8-7.541,2.9S.269,8.678.124,11.562c-.169,2.972-.169,11.878,0,14.85.137,2.883.8,5.437,2.907,7.541s4.658,2.763,7.541,2.907c2.972.169,11.878.169,14.85,0,2.883-.137,5.437-.8,7.541-2.907s2.763-4.658,2.907-7.541C36.04,23.44,36.04,14.541,35.871,11.57ZM32.032,29.6a6.074,6.074,0,0,1-3.421,3.421c-2.369.94-7.991.723-10.609.723s-8.248.209-10.609-.723A6.074,6.074,0,0,1,3.971,29.6c-.94-2.369-.723-7.991-.723-10.609s-.209-8.248.723-10.609A6.074,6.074,0,0,1,7.392,4.96C9.762,4.02,15.383,4.237,18,4.237s8.248-.209,10.609.723a6.074,6.074,0,0,1,3.421,3.421c.94,2.369.723,7.991.723,10.609S32.972,27.239,32.032,29.6Z" transform="translate(0.002 -0.995)" fill="gray"/>
</svg>
